Abschnitt 3 Fixed effects Modelle | Mini-Workshop Panel Data Analysis
…
In Variante 1 dürfen die kausalen within-person Effekte zwischen den Personen variieren. Unter der Annahme homogener Treatment-Effekte (entspricht der typischen Annahme im randomisierten Between-Subject-Experiment) entspricht das Ergebnis asymptotisch den Varianten 2 und 3.

Der Schätzer ist aber weniger effizient, da zufällige Unterschiede in den Effekten zwischen den Personen aufgegriffen werden.

Im letzten Teil des Abschnitts zum within-between-Modell kommen wir auf diesen Punkt zurück, wenn wir die Annahme homogener Treatment-Effekte lockern.

No pooling

d %>% group_by(IDsosci) %>% nest() %>% mutate(mdls = map(data, ~tidy(lm(verh1 ~ verhint1, 
    data = .x)))) %>% unnest(mdls) %>% ungroup() %>% select(-data) %>% na.omit() %>% 
    filter(statistic != Inf) %>% filter(term == "verhint1") %>% mutate_if(is.numeric, 
    round, 2) %>% print %>% summarise(estimate = mean(estimate), std.error = sqrt(mean(std.error^2)))  # simple approximation

## # A tibble: 232 x 6
##    IDsosci term     estimate std.error statistic p.value
##    <chr>   <chr>       <dbl>     <dbl>     <dbl>   <dbl>
##  1 050IPY  verhint1     1.25      0.56  2.24e+ 0    0.15
##  2 05J4R8  verhint1     0.45      0.18  2.50e+ 0    0.13
##  3 08BDZJ  verhint1     0.33      0.53  6.30e- 1    0.59
##  4 0EO9L2  verhint1     1.67      0.67  2.50e+ 0    0.13
##  5 0F5L9Z  verhint1     0         0.71  0.          1   
##  6 0KYYAJ  verhint1     0.45      0.18  2.50e+ 0    0.13
##  7 0ONV4O  verhint1     1         0     9.01e+15    0   
##  8 0ZCKB5  verhint1    -0.35      0.5  -6.90e- 1    0.56
##  9 114OWA  verhint1     0.33      0.33  1.00e+ 0    0.42
## 10 16YGN0  verhint1     0.5       0.25  2.00e+ 0    0.18
## # … with 222 more rows
…
Intuitive Interpretation: Eine Abweichung vom Personen-Durchschnitt in \(X\) um einen Punkt führt zu einer Abweichung vom Personen-Durchschnitt in \(Y\) um \(b_{X}\) Punkte.

Hier: Wenn eine Person um einen Punkt wahrscheinlicher raus gehen möchte als üblich, dann wird sie 0.34 Punkte häufiger raus gehen (beides auf 5er Skalen).

Das ist durchaus ein bedeutsamer Effekt. Aber zur Erinnerung: Der naiven pooled OLS Schätzung zufolge war der Effekt fast doppelt so groß. Es scheint also auch einen Unterschied zwischen Personen zugeben. Personen, die im Durchschnitt wahrscheinlicher raus gehen wollen, gehen im Durchschnitt auf häufiger raus.

Least Squares mit Dummy Variablen (LSDV)

Es wird ein Dummy-Indikator für jede \(n-1\)te Person in das Modell aufgenommen.

d %>% lm(verh1 ~ verhint1 + factor(IDsosci), data = .) %>% tidy() %>% mutate_if(is.numeric, 
    round, 2) %>% print(n = 17)

## # A tibble: 577 x 5
##    term                  estimate std.error statistic p.value
##    <chr>                    <dbl>     <dbl>     <dbl>   <dbl>
##  1 (Intercept)              0.65       0.28      2.31    0.02
##  2 verhint1                 0.35       0.02     21.5     0   
##  3 factor(IDsosci)02E6C8   -0.35       0.4      -0.86    0.39
##  4 factor(IDsosci)050IPY    1.21       0.4       3.01    0   
##  5 factor(IDsosci)05J4R8    0.32       0.4       0.79    0.43
##  6 factor(IDsosci)08BDZJ    0.96       0.4       2.39    0.02
##  7 factor(IDsosci)0BHGLF    0.570      0.4       1.42    0.16
##  8 factor(IDsosci)0EB6C1    0          0.4       0       1   
##  9 factor(IDsosci)0EO9L2    1.95       0.4       4.82    0   
## 10 factor(IDsosci)0F5L9Z    1.64       0.4       4.06    0   
## 11 factor(IDsosci)0KAKHF    2.2        0.4       5.44    0   
## 12 factor(IDsosci)0KYYAJ   -0.01       0.4      -0.02    0.98
## 13 factor(IDsosci)0ONV4O    0.33       0.4       0.82    0.41
## 14 factor(IDsosci)0PKFWT   -0.09       0.4      -0.22    0.83
## 15 factor(IDsosci)0ZCKB5    0.32       0.4       0.79    0.43
## 16 factor(IDsosci)114OWA    0.33       0.4       0.82    0.41
## 17 factor(IDsosci)11KVRK   -0.17       0.4      -0.43    0.67
## # … with 560 more rows
…
In Paneldaten ist der Erhebungszeitpunkt bzw. die Erhebungsperiode (Panelwelle) eine typische Variable, über die verschiedene, für alle Personen konstante Effekte kontrolliert werden können.

Einige Lehrbücher empfehlen, dies immer zu tun, da kausale Effekte von Ereignissen, die für alle Einheiten konstant sind, statistisch nicht identifiziert sind.

Eine typische Spezifikation ist die Aufnahme eines fixed effects für den Indikator der Panelwelle.

In der LSDV-Spezifikation kann einfach ein weiterer Dummy-Faktor hinzugefügt werden. Die within-person Transformation ist mathematisch komplizierter, wird aber in spezialisierten Software-Pakten im Hintergrund erledigt. Es können auch beide Spezifikationen kombiniert werden, wenn z.B. die Periodeneffekte von inhaltlichem Interesse sind und im Output angezeigt werden sollen (siehe nächsten Teilabschnitt).

Ein Beispiel mit fixed effects für Personen und Perioden

d %>% lm(verh1 ~ verhint1 + factor(wave) + factor(IDsosci), data = .) %>% tidy() %>% 
    mutate_if(is.numeric, round, 2) %>% print(n = 17)

## # A tibble: 580 x 5
##    term                  estimate std.error statistic p.value
##    <chr>                    <dbl>     <dbl>     <dbl>   <dbl>
##  1 (Intercept)               0.6       0.28      2.13    0.03
##  2 verhint1                  0.33      0.02     19.8     0   
##  3 factor(wave)2             0.02      0.03      0.6     0.55
##  4 factor(wave)3             0.14      0.03      4.15    0   
##  5 factor(wave)4             0.12      0.03      3.41    0   
##  6 factor(IDsosci)02E6C8    -0.33      0.4      -0.83    0.41
##  7 factor(IDsosci)050IPY     1.26      0.4       3.15    0   
##  8 factor(IDsosci)05J4R8     0.34      0.4       0.85    0.39
##  9 factor(IDsosci)08BDZJ     1.01      0.4       2.53    0.01
## 10 factor(IDsosci)0BHGLF     0.59      0.4       1.48    0.14
## 11 factor(IDsosci)0EB6C1     0         0.4       0       1   
## 12 factor(IDsosci)0EO9L2     2.02      0.4       5.01    0   
## 13 factor(IDsosci)0F5L9Z     1.68      0.4       4.2     0   
## 14 factor(IDsosci)0KAKHF     2.27      0.4       5.63    0   
## 15 factor(IDsosci)0KYYAJ     0         0.4       0.01    0.99
## 16 factor(IDsosci)0ONV4O     0.34      0.4       0.84    0.4 
## 17 factor(IDsosci)0PKFWT    -0.08      0.4      -0.21    0.84
## # … with 563 more rows
…
