Abschnitt 4 Random effects Modelle | Mini-Workshop Panel Data Analysis
…
Fast 60% der Varianz im Verlassen der Wohnung geht auf Unterschiede zwischen Personen zurück.

Im fixed effects Modell wird diese Varianz einfach aus den Daten entfernt. Über mehr als die Hälfte der Unterschiede können wir mit diesen Modellen also per Spezifikationslogik nichts aussagen.

Kausale Effekte innerhalb der Personen können damit maximal für 40% der Varianz verantwortlich sein.

Allerdings müssen wir dabei beachten, dass auch der gesamte Messfehler (zumindest die zufällige Messfehlervarianz nach der CTT) ebenfalls in diesem Varianzanteil steckt.

Wir können die Schätzer der random effects für die Personen im Null-Modell auch dazu nutzen, uns einen Überblick zu verschaffen über die Verteilung der personenspezifischen Tendenz, die Wohnung ohne triftigen Grund zu verlassen. Die Schätzer können wir mit ranef() extrahieren, mit broom.mixed::augment() erhalten wir zusätzlich Standardfehler und Konfidenzintervalle in einem tidy data.frame.

# tibble der RE und ihre Verteilung als Histogramm
m0 %>% ranef() %>% augment(ci.level = 0.95) %>% as_tibble() %>% print(n = 12) %>% 
    ggplot(aes(estimate)) + geom_histogram()

## # A tibble: 576 x 8
##    grp     variable    level  estimate       qq std.error     lb    ub
##    <fct>   <fct>       <fct>     <dbl>    <dbl>     <dbl>  <dbl> <dbl>
##  1 IDsosci (Intercept) 01PQGO  -0.451  -3.13        0.295 -1.03  0.126
##  2 IDsosci (Intercept) 02E6C8  -0.451  -2.79        0.295 -1.03  0.126
##  3 IDsosci (Intercept) 050IPY   1.47    1.53        0.295  0.892 2.05 
##  4 IDsosci (Intercept) 05J4R8   0.189   0.571       0.295 -0.388 0.766
##  5 IDsosci (Intercept) 08BDZJ   1.26    1.41        0.295  0.679 1.83 
##  6 IDsosci (Intercept) 0BHGLF   0.402   0.779       0.295 -0.175 0.980
##  7 IDsosci (Intercept) 0EB6C1  -0.451  -2.62        0.295 -1.03  0.126
##  8 IDsosci (Intercept) 0EO9L2   2.32    2.02        0.295  1.75  2.90 
##  9 IDsosci (Intercept) 0F5L9Z   1.68    1.63        0.295  1.11  2.26 
## 10 IDsosci (Intercept) 0KAKHF   2.54    2.05        0.295  1.96  3.11 
## 11 IDsosci (Intercept) 0KYYAJ  -0.238  -0.00653     0.295 -0.815 0.339
## 12 IDsosci (Intercept) 0ONV4O  -0.0245  0.321       0.295 -0.602 0.553
## # … with 564 more rows
…
